{ workflows:[{
		id : 46,
		text : '工作流管理',
		items : [  {
			parent_id : 46,
			id : 49,
			text : '我的流程',
			iconCls:'folder-wfMyInst',
			className:'myInstancesPanel'
		}, {
			parent_id : 46,
			id : 48,
			text : '已部署的流程定义',
			iconCls:'folder-wfDeployed',
			className:'workflowProcdefs'
		}, {
			parent_id : 46,
			id : 47,
			text : '流程设计工作区',
			iconCls:'folder-wfDef',
			className:'workflowModels'
		}
		]
	} ]}